[
  {
    "uuid": "19569928-5062-4808-aead-cb58fdaf7f41",
    "name": "Pemo_An",
    "level": 4,
    "bypassesPlayerLimit": false
  },
  {
    "uuid": "3c9b6eca-8513-4483-819f-03fa766e815a",
    "name": "CatUMI",
    "level": 4,
    "bypassesPlayerLimit": false
  },
  {
    "uuid": "e35cdcfb-7122-4980-bb69-d1a459b5fa7f",
    "name": "xiaoyu0725",
    "level": 4,
    "bypassesPlayerLimit": false
  },
  {
    "uuid": "e3835b51-644c-43a2-baa8-1d1985f5ac62",
    "name": "BroodBugle72587",
    "level": 4,
    "bypassesPlayerLimit": false
  },
  {
    "uuid": "161dc179-158e-4159-956c-21c3fe10056e",
    "name": "ChiMiLin",
    "level": 4,
    "bypassesPlayerLimit": false
  }
]