{
  "minecraft:adventure/root": {
    "criteria": {
      "killed_something": "2021-07-01 21:36:43 +0800"
    },
    "done": true
  },
  "minecraft:adventure/adventuring_time": {
    "criteria": {
      "minecraft:cold_ocean": "2021-07-01 21:38:11 +0800",
      "minecraft:taiga": "2021-07-01 21:35:50 +0800",
      "minecraft:deep_cold_ocean": "2021-07-01 21:38:14 +0800",
      "minecraft:river": "2021-07-01 21:38:09 +0800"
    },
    "done": false
  },
  "DataVersion": 2724
}